src/trace.vcd
$date
     Mar 26, 2025       15:13:44
$end

$version
 SystemC 2.3.3-Accellera --- Feb 20 2025 16:37:08
$end

$timescale
     1 ns
$end

$scope module SystemC $end
$var wire    1  aaaaa  clk       $end
$var wire    1  aaaab  doA_signal       $end
$var wire    1  aaaac  doS_signal       $end
$var wire    1  aaaad  p_done_crossbar       $end
$var wire    1  aaaae  p_done_SH       $end
$upscope $end
$enddefinitions  $end

$comment
All initial values are dumped below at time 0 sec = 0 timescale units.
$end

$dumpvars
1aaaaa
0aaaab
0aaaac
0aaaad
0aaaae
$end

#5
0aaaaa

#10
1aaaaa

#15
0aaaaa

#20
1aaaaa

#25
0aaaaa

#30
1aaaaa

#35
0aaaaa

#40
1aaaaa

#45
0aaaaa

#50
1aaaaa

#55
0aaaaa

#60
1aaaaa

#65
0aaaaa

#70
1aaaaa

#75
0aaaaa

#80
1aaaaa

#85
0aaaaa

#90
1aaaaa

#95
0aaaaa

#100
1aaaaa
1aaaab

#105
0aaaaa

#110
1aaaaa
0aaaab

#115
0aaaaa

#120
1aaaaa

#125
0aaaaa

#130
1aaaaa

#135
0aaaaa

#140
1aaaaa

#145
0aaaaa

#150
1aaaaa
1aaaac
1aaaad

#155
0aaaaa

#160
1aaaaa
0aaaac

#165
0aaaaa

#170
1aaaaa
1aaaae

#175
0aaaaa

#180
1aaaaa

#185
0aaaaa

#190
1aaaaa

#195
0aaaaa

#200
1aaaaa

#205
0aaaaa

#210
1aaaaa

#215
0aaaaa

#220
1aaaaa

#225
0aaaaa

#230
1aaaaa

#235
0aaaaa

#240
1aaaaa

#245
0aaaaa

#250
1aaaaa

#255
0aaaaa

#260
1aaaaa

#265
0aaaaa

#270
1aaaaa

#275
0aaaaa

#280
1aaaaa

#285
0aaaaa

#290
1aaaaa

#295
0aaaaa

#300
1aaaaa

#305
0aaaaa

#310
1aaaaa

#315
0aaaaa

#320
1aaaaa

#325
0aaaaa

#330
1aaaaa

#335
0aaaaa

#340
1aaaaa

#345
0aaaaa

#350
1aaaaa
1aaaab
0aaaad

#355
0aaaaa

#360
1aaaaa
0aaaab

#365
0aaaaa

#370
1aaaaa

#375
0aaaaa

#380
1aaaaa

#385
0aaaaa

#390
1aaaaa

#395
0aaaaa

#400
1aaaaa
1aaaac
1aaaad
0aaaae

#405
0aaaaa

#410
1aaaaa
0aaaac

#415
0aaaaa

#420
1aaaaa
1aaaae

#425
0aaaaa

#430
1aaaaa

#435
0aaaaa

#440
1aaaaa

#445
0aaaaa

#450
1aaaaa

#455
0aaaaa

#460
1aaaaa

#465
0aaaaa

#470
1aaaaa

#475
0aaaaa

#480
1aaaaa

#485
0aaaaa

#490
1aaaaa

#495
0aaaaa

#500
1aaaaa

#505
0aaaaa

#510
1aaaaa

#515
0aaaaa

#520
1aaaaa

#525
0aaaaa

#530
1aaaaa

#535
0aaaaa

#540
1aaaaa

#545
0aaaaa

#550
1aaaaa

#555
0aaaaa

#560
1aaaaa

#565
0aaaaa

#570
1aaaaa

#575
0aaaaa

#580
1aaaaa

#585
0aaaaa

#590
1aaaaa

#595
0aaaaa

#600
1aaaaa
1aaaab
0aaaad

#605
0aaaaa

#610
1aaaaa
0aaaab

#615
0aaaaa

#620
1aaaaa

#625
0aaaaa

#630
1aaaaa

#635
0aaaaa

#640
1aaaaa

#645
0aaaaa

#650
1aaaaa
1aaaac
1aaaad
0aaaae

#655
0aaaaa

#660
1aaaaa
0aaaac

#665
0aaaaa

#670
1aaaaa
1aaaae

#675
0aaaaa

#680
1aaaaa

#685
0aaaaa

#690
1aaaaa

#695
0aaaaa

#700
1aaaaa

#705
0aaaaa

#710
1aaaaa

#715
0aaaaa

#720
1aaaaa

#725
0aaaaa

#730
1aaaaa

#735
0aaaaa

#740
1aaaaa

#745
0aaaaa

#750
1aaaaa

#755
0aaaaa

#760
1aaaaa

#765
0aaaaa

#770
1aaaaa

#775
0aaaaa

#780
1aaaaa

#785
0aaaaa

#790
1aaaaa

#795
0aaaaa

#800
1aaaaa

#805
0aaaaa

#810
1aaaaa

#815
0aaaaa

#820
1aaaaa

#825
0aaaaa

#830
1aaaaa

#835
0aaaaa

#840
1aaaaa

#845
0aaaaa

#850
1aaaaa
1aaaab
0aaaad

#855
0aaaaa

#860
1aaaaa
0aaaab

#865
0aaaaa

#870
1aaaaa

#875
0aaaaa

#880
1aaaaa

#885
0aaaaa

#890
1aaaaa

#895
0aaaaa

#900
1aaaaa
1aaaac
1aaaad
0aaaae

#905
0aaaaa

#910
1aaaaa
0aaaac

#915
0aaaaa

#920
1aaaaa
1aaaae

